[{
  "zeitstempel": "11/3/20 6:47",
  "adresse": "0",
  "anwesend": "TRUE",
  "lichtlevel": "254",
  "betriebZei": "3950.5",
  "anzahlS": "292"
},
  {
    "zeitstempel": "11/3/20 6:47",
    "adresse": "1",
    "anwesend": "TRUE",
    "lichtlevel": "254",
    "betriebZei": "3954.8",
    "anzahlS": "292"
  },
  {
    "zeitstempel": "11/3/20 6:47",
    "adresse": "2",
    "anwesend": "TRUE",
    "lichtlevel": "254",
    "betriebZei": "3931.7",
    "anzahlS": "290"
  },
  {
    "zeitstempel": "11/3/20 6:47",
    "adresse": "3",
    "anwesend": "TRUE",
    "lichtlevel": "254",
    "betriebZei": "3871.5",
    "anzahlS": "60"
  },
  {
    "zeitstempel": "11/3/20 6:47",
    "adresse": "4",
    "anwesend": "TRUE",
    "lichtlevel": "254",
    "betriebZei": "3879.1",
    "anzahlS": "303"
  },
  {
    "zeitstempel": "11/3/20 6:48",
    "adresse": "5",
    "anwesend": "TRUE",
    "lichtlevel": "254",
    "betriebZei": "3908",
    "anzahlS": "295"
  },
  {
    "zeitstempel": "11/3/20 6:48",
    "adresse": "6",
    "anwesend": "TRUE",
    "lichtlevel": "254",
    "betriebZei": "3953.9",
    "anzahlS": "291"
  },
  {
    "zeitstempel": "11/3/20 6:48",
    "adresse": "7",
    "anwesend": "TRUE",
    "lichtlevel": "254",
    "betriebZei": "3954.6",
    "anzahlS": "291"
  },
  {
    "zeitstempel": "11/3/20 6:48",
    "adresse": "8",
    "anwesend": "TRUE",
    "lichtlevel": "254",
    "betriebZei": "3868.3",
    "anzahlS": "290"
  },
  {
    "zeitstempel": "11/3/20 6:48",
    "adresse": "9",
    "anwesend": "TRUE",
    "lichtlevel": "254",
    "betriebZei": "3946.2",
    "anzahlS": "289"
  },
  {
    "zeitstempel": "11/3/20 6:48",
    "adresse": "10",
    "anwesend": "TRUE",
    "lichtlevel": "254",
    "betriebZei": "3946.9",
    "anzahlS": "292"
  },
  {
    "zeitstempel": "11/3/20 6:48",
    "adresse": "11",
    "anwesend": "TRUE",
    "lichtlevel": "254",
    "betriebZei": "3955.2",
    "anzahlS": "291"
  }
]
